name,description
Colgate,Colgate
Closeup,Closeup
Pepsico,Pepsico
Cocacola,Cocacola
Decathlon,Decathlon
Oneplus,Oneplus
Nokia,Nokia
Samsung,Samsung
Apple,Apple
Plantronics,Plantronics
Logitech,Logitech
Hp,Hp
Dell,Dell
HCL,HCL
Kissan,Kissan
Cadburys,Cadburys
Asian,Asian
Merck,Merck
Kingfisher,Kingfisher
Budweiser,Budweiser
Bisleri,Bisleri
Baileys,Baileys
Smirnoff,Smirnoff
Johnson&Johson,Johnson&Johson
Maggi,Maggi
TopRamen,TopRamen
Chings,Chings
Himalayan,Himalayan
Stark,Stark